4 Beyond Basics - group_by and cmap/delayed
…
##    user  system elapsed 
##    0.89    0.22  102.92

grp.df

## Warning: `...` is not empty.
## 
## We detected these problematic arguments:
## * `needs_dots`
## 
## These dots only exist to allow future extensions and should be empty.
## Did you misspecify an argument?

## # A tibble: 210 x 3
##    monthly.rpt.prd avg_last_rt median_loan.age
##    <chr>                 <dbl>           <dbl>
##  1 01/01/2000             7.87               0
##  2 01/01/2001             8.11               6
##  3 01/01/2002             7.11               7
##  4 01/01/2003             6.62              11
##  5 01/01/2004             5.94              10
##  6 01/01/2005             5.82              20
##  7 01/01/2006             5.78              30
##  8 01/01/2007             5.84              40
##  9 01/01/2008             5.89              49
## 10 01/01/2009             5.90              54
## # ... with 200 more rows
…
